{
    "MRPC": {
        "train_data_path": "../data/glue/MRPC.train",
        "validation_data_path": "../data/glue/MRPC.tune",
        "sent_idxs": [
            0,
            1
        ],
        "tasks": {
            "MRPC": {
                "column_idx": 2,
                "task_type": "classification"
            }
        }
    }
}