{
    "SNLI": {
        "train_data_path": "../data/glue/SNLI.train",
        "validation_data_path": "../data/glue/SNLI.tune",
        "sent_idxs": [
            0,
            1
        ],
        "tasks": {
            "SNLI": {
                "column_idx": 2,
                "task_type": "classification"
            }
        }
    }
}