{
    "UD": {
        "train_data_path": "../data/ud-treebanks-v2.8.noEUD/UD_Arabic-PADT/ar_padt-ud-train.conllu",
        "validation_data_path": "../data/ud-treebanks-v2.8.noEUD/UD_Arabic-PADT/ar_padt-ud-tune.conllu",
        "tasks": {
            "dependency": {
                "column_idx": 6,
                "task_type": "dependency"
            },
            "feats": {
                "column_idx": 5,
                "task_type": "seq"
            },
            "lemma": {
                "column_idx": 2,
                "task_type": "string2string"
            },
            "upos": {
                "column_idx": 3,
                "task_type": "seq"
            },
            "xpos": {
                "column_idx": 4,
                "task_type": "seq"
            }
        },
        "word_idx": 1
    }
}